\babel@toc {english}{}
\contentsline {section}{\numberline {1}Data}{2}{section.1}
\contentsline {section}{\numberline {2}Causal model}{3}{section.2}
\contentsline {section}{\numberline {3}Simulated Data}{4}{section.3}
\contentsline {section}{\numberline {4}Preparing predictors}{4}{section.4}
\contentsline {section}{References}{6}{section*.6}
