\BOOKMARK [1][-]{section.1}{Data}{}% 1
\BOOKMARK [1][-]{section.2}{Causal model}{}% 2
\BOOKMARK [1][-]{section.3}{Simulated Data}{}% 3
\BOOKMARK [1][-]{section.4}{Preparing predictors}{}% 4
\BOOKMARK [1][-]{section*.6}{References}{}% 5
