\relax 
\providecommand\hyper@newdestlabel[2]{}
\providecommand\zref@newlabel[2]{}
\catcode `"\active 
\providecommand\HyperFirstAtBeginDocument{\AtBeginDocument}
\HyperFirstAtBeginDocument{\ifx\hyper@anchor\@undefined
\global\let\oldcontentsline\contentsline
\gdef\contentsline#1#2#3#4{\oldcontentsline{#1}{#2}{#3}}
\global\let\oldnewlabel\newlabel
\gdef\newlabel#1#2{\newlabelxx{#1}#2}
\gdef\newlabelxx#1#2#3#4#5#6{\oldnewlabel{#1}{{#2}{#3}}}
\AtEndDocument{\ifx\hyper@anchor\@undefined
\let\contentsline\oldcontentsline
\let\newlabel\oldnewlabel
\fi}
\fi}
\global\let\hyper@last\relax 
\gdef\HyperFirstAtBeginDocument#1{#1}
\providecommand\HyField@AuxAddToFields[1]{}
\providecommand\HyField@AuxAddToCoFields[2]{}
\providecommand \oddpage@label [2]{}
\babel@aux{english}{}
\@writefile{toc}{\contentsline {section}{\numberline {1}Data}{2}{section.1}}
\citation{Tennant2017}
\@writefile{toc}{\contentsline {section}{\numberline {2}Causal model}{3}{section.2}}
\@writefile{lof}{\contentsline {figure}{\numberline {1}{\ignorespaces DAG with the influence of interest\relax }}{3}{figure.caption.2}}
\providecommand*\caption@xref[2]{\@setref\relax\@undefined{#1}}
\newlabel{fig:SimpleDag}{{1}{3}{DAG with the influence of interest\relax }{figure.caption.2}{}}
\@writefile{lof}{\contentsline {figure}{\numberline {2}{\ignorespaces DAG with different expert strategies\relax }}{3}{figure.caption.3}}
\newlabel{fig:ConfoundedDag}{{2}{3}{DAG with different expert strategies\relax }{figure.caption.3}{}}
\citation{Gelman2007}
\citation{Gelman2007}
\@writefile{toc}{\contentsline {section}{\numberline {3}Simulated Data}{4}{section.3}}
\@writefile{toc}{\contentsline {section}{\numberline {4}Preparing predictors}{4}{section.4}}
\citation{Elwert2013}
\citation{Elwert2013}
\citation{Elwert2013}
\citation{Elwert2013}
\citation{Elwert2013}
\citation{Elwert2013}
\zref@newlabel{mdf@pagelabel-1}{\default{4}\page{5}\abspage{6}\mdf@pagevalue{5}}
\@writefile{lof}{\contentsline {figure}{\numberline {3}{\ignorespaces A picture\relax }}{5}{figure.caption.4}}
\newlabel{fig:ALabel}{{3}{5}{A picture\relax }{figure.caption.4}{}}
\@writefile{lol}{\contentsline {lstlisting}{f}{5}{lstlisting.-1}}
\bibstyle{apacite}
\bibdata{02_Bibliography/Bibliography}
\bibcite{Gelman2007}{\citeauthoryear {Gelman\ \BBA{} Hill}{Gelman\ \BBA{} Hill}{{\APACyear {2007}}}}
\APACbibcite{Gelman2007}{\citeauthoryear {Gelman\ \BBA{} Hill}{Gelman\ \BBA{} Hill}{{\APACyear {2007}}}}
\@writefile{lot}{\contentsline {table}{\numberline {1}{\ignorespaces The caption of the table.\relax }}{6}{table.caption.5}}
\@writefile{toc}{\contentsline {section}{References}{6}{section*.6}}
